var d_product = [

{
"id":"Primsal PLV10WWK (Driver PD1000)",
"lifetime":"20000+",
"output":350,
"efficacy":	69,
"factors":0.96
},
{
"id":"Primsal PLV6WWK (Driver PD400)",
"lifetime":"20000+",
"output":350,
"efficacy":	69,
"factors":0.99
}
]